## Interface: 70000
## Author: Deepac
## Title: MacroToolkit Icon Data
## Version: 7.0.0.0
## Notes: Load on demand data for MacroToolkit
## LoadOnDemand: 1
## RequiredDeps: MacroToolkit
## X-Curse-Packaged-Version: v7.0.0.4
## X-Curse-Project-Name: Macro-Toolkit
## X-Curse-Project-ID: Macro-Toolkit
## X-Curse-Repository-ID: wow/macro-toolkit/mainline
## X-Curse-Packaged-Version: v7.0.0.4
## X-Curse-Project-Name: Macro Toolkit
## X-Curse-Project-ID: macro-toolkit
## X-Curse-Repository-ID: wow/macro-toolkit/mainline

..\MacroToolkit\modules\textures.lua