## Title: Lib: AdvancedIconSelector-MTK
## Notes: Provides a searchable icon selection GUI to addons, no longer supported by the original author. Local copy for Macro Toolkit, maintained by Deepac
## Version: 7.0.0.0
## Author: Darthyl of Bronzebeard-US, Deepac
## Interface: 70000
## OptionalDeps: Ace3, LibDebug
## X-Curse-Packaged-Version: v7.0.0.4
## X-Curse-Project-Name: Macro Toolkit
## X-Curse-Project-ID: macro-toolkit
## X-Curse-Repository-ID: wow/macro-toolkit/mainline

## LoadOnDemand: 1

### Localization
Locales\enUS.lua

### Main file
LibAdvancedIconSelector-MTK.lua
