﻿## Interface: 70000
## Author: Hegarol	
## Version: v8.01.00
## Dependencies: AtlasLoot
## LoadOnDemand: 1
## X-Curse-Packaged-Version: v8.01.00
## X-Curse-Project-Name: AtlasLoot Enhanced
## X-Curse-Project-ID: atlasloot-enhanced
## X-Curse-Repository-ID: wow/atlasloot-enhanced/mainline

## Title: AtlasLoot |cFF0099FF[Mists of Pandaria]|r
## Title-deDE: AtlasLoot |cFF0099FF[Mists of Pandaria]|r
## Title-zhCN: AtlasLoot |cFF0099FF[熊猫人之谜]|r
## Title-zhTW: AtlasLoot |cFF0099FF[潘達利亞之謎]|r

## Notes: AtlasLoot loot tables from Mists of Pandaria
## Notes-deDE: AtlasLoot Beuteverzeichnisse für Mists of Pandaria
## Notes-zhCN: AtlasLoot 《熊猫人之谜》物品信息
## Notes-zhTW: AtlasLoot 潘達利亞之謎資料片物品掉落資料庫

## X-eMail: manager@atlasloot.net
## X-Category: Map
## X-License: GPL v2
## X-Website: http://www.atlasloot.net

## X-AtlasLoot-LootModule: 1

data.lua
sounds.lua
