## Interface: 70000
## Title: Lib: TextDump-1.0
## Notes: Provides one or many frames for dumping text into.
## Author: Torhal
## Version: 7.0.3.1
## LoadOnDemand: 1
## X-Date: 2016-07-19T07:01:44Z
## X-Category: Libraries
## X-License: All Rights Reserved
## X-Curse-Packaged-Version: 7.0.3.1
## X-Curse-Project-Name: LibTextDump-1.0
## X-Curse-Project-ID: libtextdump-1-0
## X-Curse-Repository-ID: wow/libtextdump-1-0/mainline

LibStub\LibStub.lua
lib.xml
