## Interface: 60200
## Title: ZGV goldguide branch
## Notes: Free multi-purpose leveling guide viewer.|n|nDesigned for use with Zygor Guides, but supporting user-supplied guides as well.
## Author: Sinus Pi for Zygor Guides
## DefaultState: enabled
## LoadOnDemand: 0
## SavedVariables: ZygorGuidesViewerSettings
## - SavedVariablesPerCharacter: ZygorGuidesViewerSettingsChar
## OptionalDeps: Cartographer, Cartographer3, TomTom
## X-Category: 
## X-Credits: 
## X-eMail: zygor@zygorguides.com
## X-Website: http://zygorguides.com/
## X-License: GPL
## Version: 5.0

Libs\Libs.xml

Localization\Localization.xml

files.xml
