## Interface: 70000
## Title: VuhDo ['vu:du:]
## Author: Iza@Gilneas, humfras, Ivaria@Hyjal
## Version: 3.74
## Notes: Raid Frames providing click-heal functionality, buff and debuff control, main tank management and much more
## SavedVariablesPerCharacter: VUHDO_CONFIG, VUHDO_PANEL_SETUP, VUHDO_SPELL_ASSIGNMENTS, VUHDO_HOSTILE_SPELL_ASSIGNMENTS, VUHDO_MM_SETTINGS, VUHDO_PLAYER_TARGETS, VUHDO_MAINTANK_NAMES, VUHDO_BUFF_SETTINGS, VUHDO_POWER_TYPE_COLORS, VUHDO_SPELLS_KEYBOARD, VUHDO_SPELL_CONFIG, VUHDO_BUFF_ORDER, VUHDO_SPEC_LAYOUTS, VUHDO_GROUP_SIZE, VUHDO_RAID, VUHDO_INDICATOR_CONFIG
## SavedVariables: VUHDO_DEFAULT_LAYOUT, VUHDO_DEFAULT_PROFILE, VUHDO_PROFILES, VUHDO_MANUAL_ROLES, VUHDO_SPELL_LAYOUTS, VUHDO_USER_CLASS_COLORS, VUHDO_DEBUFF_BLACKLIST, VUHDO_BOUQUETS, VUHDO_COMBAT_LOG_TRACE, VUHDO_GLOBAL_CONFIG, VUHDO_DEBUG
## X-Curse-Packaged-Version: v3.74
## X-Curse-Project-Name: VuhDo
## X-Curse-Project-ID: vuhdo
## X-Curse-Repository-ID: wow/vuhdo/mainline

## DefaultState: Enabled
## LoadOnDemand: 0

MyMinimapButton.lua

VuhDo.xml

Libs\AceAddon-3.0\AceAddon-3.0.xml
Libs\AceGUI-3.0\AceGUI-3.0.xml
Libs\AceConfig-3.0\AceConfig-3.0.xml
Libs\UTF8\utf8.lua
Libs\UTF8\utf8data.lua

VuhDoPanel.xml
VuhDoBuffWatch.xml

