## Interface: 70000
## Title: Lib: LibStub
## Notes: Universal Library Stub
## Credits: Kaelten, Cladhaire, ckknight, Mikk, Ammo, Nevcairiel
## X-Website: http://www.wowace.com/addons/libstub/
## X-Category: Library
## X-License: Public Domain
## X-Curse-Packaged-Version: v8.01.00
## X-Curse-Project-Name: AtlasLoot Enhanced
## X-Curse-Project-ID: atlasloot-enhanced
## X-Curse-Repository-ID: wow/atlasloot-enhanced/mainline

LibStub.lua
