﻿## Interface: 70000
## Author: Hegarol	
## Version: v8.01.00
## Dependencies: AtlasLoot
## LoadOnDemand: 1
## X-Curse-Packaged-Version: v8.01.00
## X-Curse-Project-Name: AtlasLoot Enhanced
## X-Curse-Project-ID: atlasloot-enhanced
## X-Curse-Repository-ID: wow/atlasloot-enhanced/mainline

## Title: AtlasLoot |cFF0099FF[Legion]|r
## Title-deDE: AtlasLoot |cFF0099FF[Legion]|r

## Notes: AtlasLoot loot tables from Legion
## Notes-deDE: AtlasLoot Beuteverzeichnisse für Legion

## X-eMail: manager@atlasloot.net
## X-Category: Map
## X-License: GPL v2
## X-Website: http://www.atlasloot.net

## X-AtlasLoot-LootModule: 1

data.lua
